^D:\PROGWORK\JWIS_TCS\JWIS_TCS\JWIS_TCS\JWIS_TCS\JWIS_TCS.RC
D:\PROGWORK\JWIS_TCS\JWIS_TCS\JWIS_TCS\JWIS_TCS\DEBUG\JWIS_TCS.RES
^D:\PROGWORK\JWIS_TCS\JWIS_TCS\JWIS_TCS\JWIS_TCS\DEBUG\JWIS_TCS_MANIFEST.RC
D:\PROGWORK\JWIS_TCS\JWIS_TCS\JWIS_TCS\JWIS_TCS\DEBUG\JWIS_TCS.EXE.EMBED.MANIFEST.RES
^D:\PROGWORK\JWIS_TCS\JWIS_TCS_5\JWIS_TCS\JWIS_TCS\JWIS_TCS.RC
D:\PROGWORK\JWIS_TCS\JWIS_TCS_5\JWIS_TCS\JWIS_TCS\DEBUG\JWIS_TCS.RES
^D:\PROGWORK\JWIS_TCS\JWIS_TCS_5\JWIS_TCS\JWIS_TCS\DEBUG\JWIS_TCS_MANIFEST.RC
D:\PROGWORK\JWIS_TCS\JWIS_TCS_5\JWIS_TCS\JWIS_TCS\DEBUG\JWIS_TCS.EXE.EMBED.MANIFEST.RES
