^D:\PROGRAM FILES (X86)\MICROSOFT VISUAL STUDIO 10.0\VC\INCLUDE\MANIFEST\DPIAWARE.MANIFEST|D:\PROGWORK\JWIS_TCS\JWIS_TCS_5\JWIS_TCS\JWIS_TCS\RELEASE\JWIS_TCS.EXE.INTERMEDIATE.MANIFEST
/nologo /verbose /outputresource:"D:\progWork\JWIS_TCS\JWIS_TCS_5\JWIS_TCS\Release\JWIS_TCS.exe;#1" /manifest Release\JWIS_TCS.exe.intermediate.manifest "d:\Program Files (x86)\Microsoft Visual Studio 10.0\VC\Include\Manifest\dpiaware.manifest"
^D:\PROGRAM FILES (X86)\MICROSOFT VISUAL STUDIO 10.0\VC\INCLUDE\MANIFEST\DPIAWARE.MANIFEST|D:\PROGWORK\JWIS_TCS\JWIS_TCS_6\JWIS_TCS\JWIS_TCS\RELEASE\JWIS_TCS.EXE.INTERMEDIATE.MANIFEST
/nologo /verbose /outputresource:"D:\progWork\JWIS_TCS\JWIS_TCS_6\JWIS_TCS\Release\JWIS_TCS.exe;#1" /manifest Release\JWIS_TCS.exe.intermediate.manifest "d:\Program Files (x86)\Microsoft Visual Studio 10.0\VC\Include\Manifest\dpiaware.manifest"
